<svg xmlns="http://www.w3.org/2000/svg" viewBox="0 0 556.2 630.8">
<defs>
<style>


@keyframes successcontainer{
  0%{transform: scale(0.5);}
    80%{transform: scale(1.2);}
       100%{transform: scale(1);}

}
.successcontainer{
   transform-origin: center;
  animation: successcontainer 1s forwards;
}
@keyframes successborder{
  0%{ stroke-dashoffset: 3500;
  fill: none;}
    100%{ stroke-dashoffset: 0;

    }
}

@keyframes successscaled{
  0%{transform: scale(0.5);}
   100%{transform: scale(1);}
}

@keyframes successbackground{
  0% {
    transform: scale(0);
    opacity: 0;}
     1% {
    transform: scale(0);
    opacity: 1;}
    33% {
    transform: scale(1.2);
    opacity: 0;}
    34% {
    transform: scale(1.2);
    opacity: 0;}
    35% {
    transform: scale(0);
    opacity: 0;}
    36% {
    transform: scale(0);
    opacity: 1;}
    66% {
    transform: scale(1.2);
    opacity: 0;}
    67% {
    transform: scale(1.2);
    opacity: 0;}
    68% {
    transform: scale(0);
    opacity: 0;}
     69% {
    transform: scale(0);
    opacity: 1;}
    100% {
    transform: scale(1);
    opacity: 1;}

}
@keyframes successtickbackground{
  0%{ fill: none;
  opacity:0}
   100%{fill: #ffffff;
   opacity: 1;}
}



.a{
  fill: none;
stroke-width: 10px;
stroke: #00e645;
 transform-origin: center;
stroke-dasharray: 3500;
stroke-dashoffset: 0;
stroke-miterlimit: 10;
animation: successborder 3s forwards}

.b{fill:#00e645;
 transform-origin: center;
animation: successbackground 1s infinite ;
animation-iteration-count: 1;
}
.c{  fill: none;
stroke-width: 10px;
stroke: #ffffff;
stroke-dasharray: 3500;
stroke-dashoffset: 0;
stroke-miterlimit: 10;
animation: successborder 4s forwards}
.d{
  fill: none;
  animation: successtickbackground 1s forwards;
  animation-delay: 0.5s;
}

</style>
</defs>
<title>success</title>

<path class="a" d="M485.1,178.2l-1.8-1-14.7-8.4-32-18.6-31.3-18.1h-.1l-31.9-18.4h-.1L341.8,95.5h-.1L309.9,77l-15.4-8.7-.6-.4a31.5,31.5,0,0,0-28.5-1.6h0a31,31,0,0,0-6.1,3.5l-13,7.5L214.8,95.5h-.1l-31.6,18.3h-.2l-31.6,18.4h0l-31.7,18.3L87.7,168.8l-15.4,9h-.4a31.7,31.7,0,0,0-15.8,27.6V429.8a31.6,31.6,0,0,0,15.6,23.1h.1L87.6,462l32,18.6L151,498.7h0L182.9,517l.2.2,31.4,18.2h.1l31.7,18.4,15.2,8.7,1,.6.4.2a31.2,31.2,0,0,0,30.2,0h.3l1.1-.6,15.4-8.9,31.6-18.4h.1l31.6-18.2h.1L405,498.8h.1l31.5-18.2,32-18.4h0l13.7-7.9c1.3-.7,2.6-1.4,3.8-2.2h0a31.7,31.7,0,0,0,14-26.4V205.4A31.6,31.6,0,0,0,485.1,178.2Z"/>
<path class="b" d="M485.1,178.2l-1.8-1-14.7-8.4-32-18.6-31.3-18.1h-.1l-31.9-18.4h-.1L341.8,95.5h-.1L309.9,77l-15.4-8.7-.6-.4a31.5,31.5,0,0,0-28.5-1.6h0a31,31,0,0,0-6.1,3.5l-13,7.5L214.8,95.5h-.1l-31.6,18.3h-.2l-31.6,18.4h0l-31.7,18.3L87.7,168.8l-15.4,9h-.4a31.7,31.7,0,0,0-15.8,27.6V429.8a31.6,31.6,0,0,0,15.6,23.1h.1L87.6,462l32,18.6L151,498.7h0L182.9,517l.2.2,31.4,18.2h.1l31.7,18.4,15.2,8.7,1,.6.4.2a31.2,31.2,0,0,0,30.2,0h.3l1.1-.6,15.4-8.9,31.6-18.4h.1l31.6-18.2h.1L405,498.8h.1l31.5-18.2,32-18.4h0l13.7-7.9c1.3-.7,2.6-1.4,3.8-2.2h0a31.7,31.7,0,0,0,14-26.4V205.4A31.6,31.6,0,0,0,485.1,178.2Z"/>
<path class="c" d="M246.1,405.8a26,26,0,0,1-18.6-7.8L163,333.6a26.4,26.4,0,0,1,37.3-37.3l45.8,45.9L355.3,232.9a26.4,26.4,0,1,1,37.3,37.3L264.7,398A26,26,0,0,1,246.1,405.8Z"/>
<path class="d" d="M246.1,405.8a26,26,0,0,1-18.6-7.8L163,333.6a26.4,26.4,0,0,1,37.3-37.3l45.8,45.9L355.3,232.9a26.4,26.4,0,1,1,37.3,37.3L264.7,398A26,26,0,0,1,246.1,405.8Z"/>

</svg>
